{
  "items": [
    {
      "link": "https://cssgrid.io/",
      "title": "Learn CSS Grid",
      "type": "tutorial",
      "image": "//i.imgur.com/iidem6m.jpg",
      "domain": "cssgrid.io",
      "new": true
    },
    {
      "link": "https://css-tricks.com/snippets/css/complete-guide-grid/",
      "title": "A Complete Guide to Grid",
      "type": "article",
      "image": "//cdn.css-tricks.com/wp-content/uploads/2016/03/grid-start-end-a.png",
      "domain": "CSS Tricks",
      "new": false
    },
    {
      "link": "https://www.youtube.com/watch?v=ojKbYz0iKQE",
      "title": "CSS Grid Explained in 7 Minutes (with diagrams and code)",
      "type": "video",
      "image": "//img.youtube.com/vi/ojKbYz0iKQE/0.jpg",
      "domain": "Wordcamp Europe 2017 / Youtube",
      "new": false
    },
    {
      "link": "https://www.smashingmagazine.com/2017/09/css-grid-gotchas-stumbling-blocks/",
      "title": "CSS Grid gotchas and stumbling blocks",
      "type": "article",
      "image": "//ohmygrids.com/og.jpg",
      "domain": "Smashing Magazine"
    },
    {
      "link": "https://syntax.fm/show/018/all-about-css-grid",
      "title": "All about CSS Grid",
      "type": "podcast",
      "image": "//syntax.fm/static/logo.png",
      "domain": "Syntax.fm"
    },
    {
      "link": "https://medium.freecodecamp.org/how-to-prototype-websites-quickly-with-css-grid-ffc9cba08583",
      "title": "How to prototype websites quickly with CSS Grid",
      "type": "tutorial",
      "image": "//cdn-images-1.medium.com/max/1600/1*lICyKxZL1ID50fbw2MSXOQ.gif",
      "domain": "medium.com"
    },
    {
      "link": "https://vimeo.com/239782886",
      "title": "Mark Boulton | Designing Grids",
      "type": "video",
      "image": "//i.vimeocdn.com/video/663098740_260x146.jpg",
      "domain": "CSS Day 2017 / Vimeo"
    },
    {
      "link": "https://open.nytimes.com/bootstrap-to-css-grid-87b3f5f830e4",
      "title": "From Bootstrap to CSS Grids",
      "type": "article",
      "image": "//cdn-images-1.medium.com/max/1600/0*pkfyT6WJt5lNNKkH.",
      "domain": "nytimes.com"
    },
    {
      "link": "https://www.youtube.com/watch?v=7kVeCqQCxlk",
      "title": "Morten Rand-Hendriksen | CSS Grid changes everything",
      "type": "video",
      "image": "//img.youtube.com/vi/7kVeCqQCxlk/0.jpg",
      "domain": "WordCamp 2017 / youtube"
    },
    {
      "link": "https://hackernoon.com/how-css-grid-beats-bootstrap-85d5881cf163",
      "title": "Why CSS Grid is better than Bootstrap for creating layouts",
      "type": "article",
      "image": "//cdn-images-1.medium.com/max/1600/1*RqiwstmjkDhYoz1LysyfMw.png",
      "domain": "hackernoon.com"
    },
    {
      "link": "https://css-tricks.com/collection-interesting-facts-css-grid-layout/",
      "title": "A collection of interesting facts about CSS Grid layout",
      "type": "article",
      "image": "//cloud.netlifyusercontent.com/assets/344dbf88-fdf9-42bb-adb4-46f01eedd629/8ed3a7b7-e8e7-45d7-8450-9c3cffec81d6/flex-preview-opt.png",
      "domain": "CSS Tricks"
    }
  ]
}